1 10 20
100 200 125
201 210 89
900 1000 174
10 1 20
1 10000 262
2 2302 183
1 20394 279
3 4925 238
5943 54990 340
29 399 144
29348 29348 179
1 1 1
2313 4511 238
23 312 128
4 123 119
431 100000 351
100000 200000 383
20 130 122
203 2030 182
139 2399 183
48129 50000 296
23019 230155 386
18 19238 279
84 48301 324
48 39899 324
19 923 179
19 239 128
18 3248 217
192 39248 324
1293 19238 279
48 9184 262
12 29389 308
19 948 179
23 3847 238
238 58883 340
38478 38700 231
12 393 144
1283 328 182
18372 38289 324
83249 293 351
32 384 144
8324 384 262
3284 3888 238
834 4838 238
1203 102438 351
2934 49399 324
3294 58483 340
21 24823 282
2384 34882 311
234 8438 262
284 8438 262
28 318 131
238 2388 183
48 547 144
1283 4732 238
71239 34992 340
293 394 144
29 2993 217
9214 5388 262
239 43982 324
321 329 144
93248 2394 351
3219 392 217
39 3942 238
291 3284 217
129 3992 238
1239 3929 238
12929 939249 525
2934 3942 238
29 39 107
4875 8419 262
48239 53298 340
29341 39248 324
2349 39294 324
10524 3429 262
23944 3020 282
12304 300 268
320 4939 238
2010 43020 324
203 942 179
32 342 144
12394 439123 449
1032 30240 308
1 1234 182
304 401 144
12340 43111 324
93424 93823 253
9324 29453 308
2487 4578 238
2348 4382 238
67872 133609 354
64853 256778 443
858707 734625 525
67269 991758 525
521669 167103 470
243162 893557 525
349194 99394 443
541647 181194 470
165051 551525 470
200402 346341 443
585644 45075 470
79737 35310 351
975687 195735 525
92046 671008 509
836438 586258 509
462332 636898 509
308436 88550 443
183640 738244 509
923728 38539 525
449300 208573 449
545209 901281 525
493208 236548 449
284790 847760 525
707082 347046 509
604153 182988 470
47967 790825 509
717611 836896 468
534357 413566 470
308098 278554 389
34110 370133 443
137016 807368 509
996735 173512 525
831058 235894 509
963815 774933 525
824621 161594 509
232904 740285 509
949056 525530 525
780608 343915 509
556515 96308 470
931379 721844 525
634112 604479 509
178111 72459 383
577320 690033 509
501696 286501 449
798552 323885 509
168638 283527 443
754084 897042 525
217542 958407 525
418967 205 449
293372 981452 525
495460 535939 470
110155 564280 470
299473 136076 443
613790 397201 470
11090 293935 443
135452 890425 525
76424 656103 509
205231 908899 525
930990 669873 525
712269 27047 509
517462 565057 452
859559 290782 525
905602 881948 445
339055 212249 443
731400 51474 509
932183 262462 525
729691 873846 525
835019 779067 468
209885 835360 509
378526 266880 441
970650 309231 525
440682 536922 470
691095 536056 509
766181 439021 509
713106 637804 504
646732 330357 509
122194 225140 386
962426 35066 525
735977 800094 468
624437 29722 470
997000 659377 525
261360 956211 525
675470 488244 509
599427 349659 470
414529 368568 449
377874 399604 436
650595 885434 525
702179 253130 509
782123 47686 509
762599 476896 509
577458 416965 470
244437 238420 368
930905 623940 525
827242 898781 525
276642 778725 509
117924 222507 386
133546 502918 449
365293 843514 525
110988 752475 509
869674 864998 388
162804 105002 383
968456 726630 525
943289 845531 507
266923 593970 470
968336 816225 525
403914 477973 449
236269 542346 470
291031 519745 470
421172 379663 449
9306 538705 470
