170674 550807 470
993778 781824 525
684353 914065 525
28480 381695 443
94939 236202 443
739652 962424 525
586553 897006 525
285602 652666 509
250769 176645 443
581890 367823 470
723834 965690 525
310780 516499 470
79593 919573 525
881546 659062 525
891310 739034 525
879985 754045 525
921428 891657 476
298065 877340 525
788826 281476 509
445878 315359 449
737407 368969 509
398378 447333 449
988760 972551 427
294219 937055 525
671003 111063 509
419137 901360 525
887156 731217 525
628759 822404 504
140627 899630 525
380829 684084 509
366459 420352 449
528468 355039 470
420497 475831 444
834578 560422 509
139319 777956 509
252342 159983 443
456000 955104 525
834835 954972 525
642764 339847 509
370648 612359 470
925884 268683 525
289839 331057 384
372281 808149 509
889717 60330 525
318503 991224 525
771848 786604 437
659847 223338 509
242974 569380 470
316170 645343 509
126968 66067 354
965786 831410 525
927299 304779 525
285725 409218 441
972184 421926 525
831042 52968 509
382877 515316 470
345128 128684 443
255323 482357 449
934635 123884 525
4364 541589 470
443742 272806 449
209963 828215 509
80713 505525 449
42894 519943 470
563800 227238 470
768946 388960 509
253310 983205 525
160693 77257 383
467837 194207 449
39043 215566 383
403390 156912 443
374088 314607 441
995928 285728 525
672836 174045 509
402863 411184 449
330018 259508 407
949535 657232 525
722580 368882 509
338479 479131 449
986015 205278 525
305251 404499 441
4800 675489 509
28433 39859 324
326760 173105 443
657720 267349 509
510236 780565 509
651372 169965 509
40222 90367 351
84371 709662 509
724521 240761 509
399293 603928 470
526266 99357 470
670209 824802 504
949396 222052 525
376340 463293 449
474184 411319 444
312741 641788 509
703559 102230 509
314656 75010 443
605116 642495 509
397800 744161 509
14162 96903 351
151702 457307 449
593772 228889 470
929398 123641 525
532217 769202 509
732198 382398 509
126252 324302 443
120748 863024 525
723130 998731 525
920077 807733 525
496137 147344 449
773213 396650 509
234282 57079 443
701114 401667 509
631615 669756 442
743558 113964 509
503467 37254 449
837435 187868 509
550148 224241 470
773582 449624 509
26410 887614 525
522492 567872 452
407148 471572 449
875000 622720 525
594450 431802 470
343721 411811 449
210282 201815 373
818998 25037 509
507744 677171 509
952080 583843 525
777991 491598 509
355731 378769 423
13081 977277 525
21014 266646 443
2007 820901 509
976041 840130 507
81343 243204 443
387494 989807 525
441339 565253 470
121466 189597 383
856497 773347 525
278461 85901 443
908816 864127 445
316276 543730 470
313746 697935 509
178341 72386 383
892677 791571 525
487095 295384 449
351998 339215 441
673881 943356 525
671355 767915 504
52284 318417 443
400225 777875 509
438691 298845 449
537462 644728 509
997811 615223 525
550148 986012 525
278514 832639 509
880496 515403 525
522826 826504 509
965923 969577 365
167164 926842 525
56765 833687 509
768888 979614 525
479150 735858 509
953570 704381 525
470442 9086 449
11408 804544 509
487359 533760 470
591552 385221 470
628151 926386 525
403888 12956 443
268720 178584 443
186055 584436 470
475075 388455 449
181197 683145 509
466152 209848 449
286451 361094 441
710771 473664 509
95815 694954 509
826376 604059 509
28536 82260 351
273412 497869 449
612940 816162 509
139981 225365 386
436464 18163 449
893789 324944 525
65296 80504 351
716361 328039 509
253844 530970 470
308326 10436 443
208863 764681 509
795248 756687 468
53768 933388 525
905801 40461 525
499217 982132 525
75409 693346 509
755960 918847 525
969664 430163 525
