521291 588479 452
153648 250584 443
242419 231654 381
941410 799993 525
285396 250722 407
19015 106818 354
122614 974576 525
340661 868584 525
527389 882920 525
468197 560646 470
689723 344458 509
242976 962150 525
792161 504992 509
807643 249306 509
817617 327001 509
418500 284684 449
724646 556568 509
672789 57033 509
293333 626399 509
830774 885453 525
543048 872791 525
408511 853236 525
980106 186833 525
871154 552881 525
510554 532540 470
289657 510512 449
698215 291956 509
545915 243657 470
86387 611487 470
377070 643092 509
771345 549317 509
296223 636660 509
168979 261503 443
821099 468670 509
864355 5121 525
181725 739038 509
878757 772266 525
671728 511064 509
586243 820693 509
467246 150435 449
351579 587043 470
492406 214419 449
84526 815549 509
601670 739180 509
733842 29193 509
915778 921835 432
158842 84957 383
987893 215358 525
420921 10909 449
693473 423026 509
280294 894667 525
306829 782937 509
867338 34232 525
610615 338311 470
245526 224562 443
65500 644821 509
500039 691190 509
424951 664709 509
656012 49218 509
26181 79355 351
708780 598982 509
94240 503473 449
967768 683304 525
191909 165627 365
998217 12231 525
122272 309986 443
956640 54044 525
451909 351743 449
544218 727540 509
63720 225184 386
100150 854131 525
808082 977410 525
333771 613502 470
843897 110913 525
306046 604250 470
731039 387315 509
252935 695118 509
979393 260816 525
894020 797889 525
534840 731906 509
424565 402396 449
818436 253861 509
768563 113638 509
557431 994008 525
668709 923117 525
40539 727591 509
960683 592928 525
265229 626292 470
200780 14945 383
773010 193562 509
418857 519570 470
466957 413958 444
786095 320298 509
727133 53326 509
810544 22404 509
321698 865746 525
692200 769040 504
814968 844900 525
116343 812516 509
539584 101128 470
622376 475632 470
859106 593828 525
620385 588833 447
864333 265398 525
592112 508693 470
810524 713952 468
668219 84277 509
104407 5876 351
967262 721823 525
501526 670565 509
892549 659953 525
189172 866283 525
898156 623672 525
506136 450842 444
506352 239566 449
648132 113523 509
512307 177696 470
116336 235546 443
429450 39885 449
471493 462345 413
565758 149418 470
42483 289880 443
665568 433502 509
403633 480449 449
459609 431108 400
228376 521351 470
745873 684250 504
244281 729554 509
602501 610447 403
900014 409058 525
216422 502802 449
870402 703125 525
582707 295209 470
859313 649694 525
261375 621465 470
750189 741142 393
444344 37760 449
237399 511493 449
326281 544376 470
450877 932116 525
836997 281341 509
871318 445451 525
359609 711030 509
362922 463058 449
150686 272615 443
802465 121053 509
710546 130658 509
804032 168549 509
600865 606531 403
492154 493092 426
845507 804992 525
715391 92991 509
43873 484709 449
888460 411671 525
557569 56844 470
779494 689040 504
187693 232824 443
373385 434263 449
493244 346478 449
67458 273378 443
843563 524110 525
295136 701373 509
942956 553148 525
521996 104210 470
658787 379044 509
556218 708541 509
581136 526681 452
431232 863739 525
602152 548661 434
622916 517689 452
714322 566054 509
247981 42314 443
941418 889240 507
790080 103312 509
137975 375992 443
204012 928565 525
852495 782612 525
417860 444306 418
117470 245558 443
869291 830975 525
751142 51010 509
691507 455832 509
100707 80897 341
744852 16445 509
111402 894261 525
224032 293689 443
624596 314762 470
852191 716878 525
117295 915298 525
812504 254109 509
590991 904875 525
660005 393669 509
379486 799452 509
575816 754684 509
444500 415534 418
379966 380177 242
512799 427532 470
527436 812732 509
365059 165638 443
526668 273062 470
116948 671681 509
838328 826828 525
331930 839038 525
754383 320260 509
950472 570000 525
292392 100932 443
867762 767139 525
981322 849343 507
469943 869752 525
232160 400467 441
658097 12956 509
135172 457902 449
391393 955622 525
808592 552617 509
664518 389566 509
136905 456469 449
832011 494604 509
230332 379754 443
133643 484366 449
106637 191340 383
170931 24371 383
368284 198896 443
868327 601931 525
456946 980615 525
477759 901839 525
76614 230140 386
218609 851268 525
561539 103704 470
747651 895280 525
459341 104055 449
294176 412894 449
412879 594921 470
811017 218325 509
68025 657819 509
322175 577158 470
217715 570005 470
788937 635392 504
426880 620702 470
386206 739448 509
422080 213621 449
279668 326672 389
873971 494132 525
570804 516897 452
599611 89698 470
224463 990178 525
766967 172901 509
984792 293010 525
790689 832983 468
417194 52093 449
218659 306976 443
