849023 597780 525
88338 471793 449
632002 744442 504
18966 628897 509
466278 924052 525
748402 86815 509
472506 693865 509
956796 506119 525
393447 564204 470
645101 168853 509
482682 906971 525
285303 86900 443
709044 975454 525
617801 652691 509
307343 970856 525
690529 644207 442
453364 106854 449
437623 142450 449
578981 316105 470
693277 742106 504
524776 687754 509
244964 238053 368
415656 264766 449
553019 923409 525
351425 62051 443
83593 446588 449
62874 97798 351
771907 738331 468
488073 372332 449
607727 764199 509
624121 824513 509
401725 656000 509
960436 806247 525
352897 271303 441
945241 264885 525
942903 922210 507
511161 627479 509
457942 936942 525
178210 910014 525
107058 918260 525
682699 155057 509
317480 562373 470
484873 176617 449
715760 243576 509
210808 310822 443
784605 160687 509
360635 970113 525
292180 645687 509
287927 883843 525
902317 648744 525
364024 901723 525
168003 554275 470
348334 612520 470
865313 837292 525
239776 778137 509
311941 203306 443
94874 247336 443
697189 319550 509
963265 545719 525
477797 824599 509
267297 424388 449
39971 607278 470
615756 866387 525
326724 495548 449
206378 518703 470
707484 186066 509
503075 473070 426
335793 421588 449
426206 25524 449
918906 562814 525
443630 236711 449
764955 759566 380
414853 396259 449
111181 932642 525
876288 43707 525
138997 632868 509
580919 291559 470
808746 754341 468
976596 380087 525
183007 278395 443
116784 832231 509
85261 521861 470
101479 387978 443
488060 346970 449
889203 444913 525
625815 448841 470
681938 236922 509
145976 106352 375
456225 361826 449
186707 712153 509
254497 419276 449
369552 533870 470
730578 796753 468
72426 14715 340
947279 890707 507
988789 13256 525
422255 845619 525
801394 833019 450
234122 172511 443
777069 877379 525
724879 748254 424
64153 872615 525
95194 756155 509
745940 559087 509
413085 259188 449
71806 26943 340
85780 988630 525
263429 389614 441
526187 676820 509
68521 630768 509
855395 679781 525
255359 490385 449
951260 494322 525
894657 649364 525
799632 591988 509
50487 717034 509
986669 298050 525
608212 112593 470
850379 899865 445
666414 34625 509
748902 534801 509
303144 265457 407
8715 988375 525
849976 4706 525
974111 492785 525
52276 438692 449
365897 345142 441
710921 440063 509
849409 383369 525
866153 61947 525
26350 358470 443
784634 98106 509
719815 159888 509
125659 878920 525
564833 92637 470
4889 764038 509
468724 93927 449
852737 734343 525
875879 876734 370
703528 526941 509
975166 560999 525
543938 903450 525
237902 145763 443
434626 846293 525
709859 912434 525
718047 869285 525
901880 473283 525
828680 683965 504
157406 764091 509
66856 660756 509
539500 791625 509
129399 176146 383
270238 538172 470
171840 356921 443
830981 463963 509
702210 839019 525
664092 914405 525
541239 741891 509
199057 696087 509
93882 390106 443
276217 103178 443
524210 827668 509
679594 135501 509
409726 543913 470
201968 261185 443
319139 307607 384
404329 486744 449
765687 393243 509
245302 992010 525
773386 849524 525
365436 507191 449
367222 478186 449
970088 799742 525
477982 578466 470
145451 613942 470
562600 421806 470
896862 798341 525
3776 494210 449
859578 52760 525
89515 232091 443
268867 743836 509
760673 312321 509
116039 756982 509
962023 987662 458
32484 864772 525
442826 945177 525
863581 465868 525
930042 610151 525
778590 8986 509
162879 940106 525
633871 600806 509
91170 679095 509
651141 846182 525
761675 346906 509
522110 484097 470
35886 404622 443
528950 856088 525
801234 368748 509
696790 624980 509
574704 112041 470
